{
	"ImportPath": "bitbucket.org/georgerogers42/maximgo",
	"GoVersion": "go1.7",
	"GodepVersion": "v74",
	"Deps": [
		{
			"ImportPath": "github.com/gorilla/mux",
			"Comment": "v1.1-27-g757bef9",
			"Rev": "757bef944d0f21880861c2dd9c871ca543023cba"
		},
		{
			"ImportPath": "github.com/lib/pq",
			"Comment": "go1.0-cutoff-117-g50761b0",
			"Rev": "50761b0867bd1d9d069276790bcd4a3bccf2324a"
		},
		{
			"ImportPath": "github.com/lib/pq/oid",
			"Comment": "go1.0-cutoff-117-g50761b0",
			"Rev": "50761b0867bd1d9d069276790bcd4a3bccf2324a"
		},
		{
			"ImportPath": "github.com/microcosm-cc/bluemonday",
			"Rev": "7d0cad0ac7ef5e3afd74816444b44b56327422a4"
		},
		{
			"ImportPath": "github.com/russross/blackfriday",
			"Comment": "v1.4-40-g5f33e7b",
			"Rev": "5f33e7b7878355cd2b7e6b8eefc48a5472c69f70"
		},
		{
			"ImportPath": "github.com/shurcooL/sanitized_anchor_name",
			"Rev": "1dba4b3954bc059efc3991ec364f9f9a35f597d2"
		},
		{
			"ImportPath": "golang.org/x/net/html",
			"Rev": "ffe101cce3477a6c6d8f0754d103bb0a84ec1266"
		},
		{
			"ImportPath": "golang.org/x/net/html/atom",
			"Rev": "ffe101cce3477a6c6d8f0754d103bb0a84ec1266"
		}
	]
}
